version="1.10.x"
tags={
	"Alternative History"
	"National Focuses"
	"Military"
	"Graphics"
	"Technologies"
	"Historical"
	"Events"
	"Ideologies"
	"Gameplay"
	"Fixes"
	"Balance"
	"Utilities"
	"Translation"
	"Sound"
	"Map"
}
name="Rise of Evil"
supported_version="1.10.5"